C:\Development\workspace\schedule-test\src\main\java\rebmann\patrick\service\database\MockDatabaseInterfaceImpl.java
C:\Development\workspace\schedule-test\src\main\java\rebmann\patrick\service\ScheduleTestFacade.java
C:\Development\workspace\schedule-test\src\main\java\rebmann\patrick\service\database\DatabaseInterface.java
C:\Development\workspace\schedule-test\src\main\java\rebmann\patrick\App.java
C:\Development\workspace\schedule-test\src\main\java\rebmann\patrick\service\MockScheduleStrategy.java
C:\Development\workspace\schedule-test\src\main\java\rebmann\patrick\service\ScheduleTestStrategy.java
C:\Development\workspace\schedule-test\src\main\java\rebmann\patrick\model\TestSuite.java
C:\Development\workspace\schedule-test\src\main\java\rebmann\patrick\model\Hardware.java
C:\Development\workspace\schedule-test\src\main\java\rebmann\patrick\model\TestSystem.java
C:\Development\workspace\schedule-test\src\main\java\rebmann\patrick\model\OperatingSystem.java
